[XSActionEditor]
Geometry=@ByteArray(\x1\xd9\xd0\xcb\0\x3\0\0\0\0\x3\x8d\0\0\x1\xda\0\0\x4\xb2\0\0\x3\x86\0\0\x3\x8e\0\0\x1\xf9\0\0\x4\xb1\0\0\x3\x85\0\0\0\0\0\0\0\0\a\x80\0\0\x3\x8e\0\0\x1\xf9\0\0\x4\xb1\0\0\x3\x85)
WindowState=@ByteArray(\0\0\0\xff\0\0\0\0\xfd\0\0\0\0\0\0\x1$\0\0\x1\x8d\0\0\0\x4\0\0\0\x4\0\0\0\b\0\0\0\b\xfc\0\0\0\0)
